[
  { "timestamp": "2021-04-10 01:52:10",
    "originURL": "https://www.reddit.com/r/Supernote/comments/mnvmsc/monthly_template_supernote/",
    "filename": [ "20210410015210_monthly_planner.png" ],
    "tags": [ "planner", "monthly" ],
    "owner": "u/Suspicious_Novel6428",
    "title": "Monthly Planner",
    "description": ""
  },
  { "timestamp": "2021-04-10 01:52:10",
    "originURL": "https://www.reddit.com/r/Supernote/comments/mnvmsc/monthly_template_supernote/",
    "filename": [ "20210410015210_quick_notes.png" ],
    "tags": [ "notes" ],
    "owner": "u/Suspicious_Novel6428",
    "title": "Quick Notes",
    "description": ""
  }
]