[
  { "timestamp": "2021-11-03 20:39:17",
    "originURL": "https://www.reddit.com/r/Supernote/comments/qm3ok6/textured_drawing_paper/",
    "filename": [ "20211103203917_drawing_canvas_grey.png", "20211103203917_drawing_canvas_dark.png" ],
    "tags": [ "drawing" ],
    "owner": "u/kichien",
    "title": "Textured Drawing Background",
    "description": ""
  }
]