[
  { "timestamp": "2021-11-22 12:38:00",
    "originURL": "https://www.reddit.com/r/Supernote/comments/qzki87/chemistry_template_hexagonal_grid/",
    "filename": [ "20211122123800_hex_diag.png", "20211122123800_hex_flat.png" ],
    "tags": [ "grid" ],
    "owner": "u/ld10s",
    "title": "Hexagonal Grid",
    "description": ""
  }
]