[
  { "timestamp": "2021-07-27 17:42:22",
    "originURL": "https://www.reddit.com/r/Supernote/comments/osrj3h/dotted_lined_landscape_5mm/",
    "filename": [ "20210727174222_dot_landscape_lined_5mm.png" ],
    "tags": [ "landscape", "dotted lines", "a5x 5mm" ],
    "owner": "u/tellurian-faberati",
    "title": "Dotted Lined Landscape (5mm)",
    "description": ""
  }
]
