[
  { "timestamp": "2021-09-27 15:54:41",
    "originURL": "https://www.reddit.com/r/Supernote/comments/pwk13r/meeting_notes/",
    "filename": [ "20210927155441_meeting1.png", "20210927155441_meeting2.png" ],
    "tags": [ "log", "meeting" ],
    "owner": "u/bgnfu7re",
    "title": "Meeting Notes",
    "description": ""
  }
]