[
  { "timestamp": "2021-07-04 17:34:10",
    "originURL": "https://www.reddit.com/r/Supernote/comments/odp455/new_template_for_recipes/",
    "filename": [ "20210704173410_recipe.png" ],
    "tags": [ "recipe" ],
    "owner": "u/nikosan-zero",
    "title": "Recipe",
    "description": ""
  }
]