[
  { "timestamp": "2021-12-05 21:09:50",
    "originURL": "https://www.reddit.com/r/Supernote/comments/r9phhw/goal_tracker_page_template/",
    "filename": [ "20211205210950_goal.png" ],
    "tags": [ "tracker" ],
    "owner": "u/No-Satisfaction-3430",
    "title": "Goal Tracker",
    "description": ""
  }
]