[
  { "timestamp": "2021-12-18 17:00:21",
    "originURL": "https://www.reddit.com/r/Supernote/comments/rjblpo/book_review_png_custom_template/",
    "filename": [ "20211218170021_book_review.png" ],
    "tags": [ "media" ],
    "owner": "u/barroeire",
    "title": "Book Review",
    "description": ""
  }
]