[
  { "timestamp": "2021-10-27 14:32:28",
    "originURL": "https://www.reddit.com/r/Supernote/comments/qgy1g7/eisenhower_matrix_a6x_landscape_template/",
    "filename": [ "20211027143228_eisenhower.png" ],
    "tags": [ "matrix", "landscape" ],
    "owner": "u/Ok-Rent-5685",
    "title": "Eisenhower Matrix (Landscape)",
    "description": ""
  }
]