[
  { "timestamp": "2021-06-28 18:50:06",
    "originURL": "https://www.reddit.com/r/Supernote/comments/o9qpr1/lists_to_does_templates_ax5/",
    "filename": [ "20210628185006_task_notes.png" ],
    "tags": [ "planner", "notes" ],
    "owner": "u/Suspicious_Novel6428",
    "title": "Tasks and Notes",
    "description": ""
  },
  { "timestamp": "2021-06-28 18:50:06",
    "originURL": "https://www.reddit.com/r/Supernote/comments/o9qpr1/lists_to_does_templates_ax5/",
    "filename": [ "20210628185006_task_notes_2x.png" ],
    "tags": [ "planner", "notes" ],
    "owner": "u/Suspicious_Novel6428",
    "title": "Tasks and Notes (2x)",
    "description": ""
  },
  { "timestamp": "2021-06-28 18:50:06",
    "originURL": "https://www.reddit.com/r/Supernote/comments/o9qpr1/lists_to_does_templates_ax5/",
    "filename": [ "20210628185006_tasks_2col.png" ],
    "tags": [ "planner", "notes" ],
    "owner": "u/Suspicious_Novel6428",
    "title": "Tasks (Two Column)",
    "description": ""
  },
  { "timestamp": "2021-06-28 18:50:06",
    "originURL": "https://www.reddit.com/r/Supernote/comments/o9qpr1/lists_to_does_templates_ax5/",
    "filename": [ "20210628185006_list_2col.png" ],
    "tags": [ "planner", "notes" ],
    "owner": "u/Suspicious_Novel6428",
    "title": "List (Two Column)",
    "description": ""
  }
]
