[
  { "timestamp": "2021-05-07 16:09:17",
    "originURL": "https://www.reddit.com/r/Supernote/comments/n7238r/a_little_workflow_while_waiting_for_my_supernote/",
    "filename": [ "20210507160917_daily_todo.png" ],
    "tags": [ "planner", "daily" ],
    "owner": "u/nikosan-zero",
    "title": "Daily TODO",
    "description": ""
  }
]
