[
  { "timestamp": "2021-12-18 15:03:17",
    "originURL": "https://www.reddit.com/r/Supernote/comments/rj99g0/travel_expenses_custom_png_template/",
    "filename": [ "20211218150317_expenses.png" ],
    "tags": [ "log" ],
    "owner": "u/barroeire",
    "title": "Travel Expenses",
    "description": ""
  }
]