[
  { "timestamp": "2022-12-14 01:47:37",
    "originURL": "https://www.reddit.com/r/Supernote/comments/zldx97/start_sht_finish_sht_to_do/",
    "filename": [ "20221214014737_todo.png" ],
    "tags": [ "planner" ],
    "owner": "u/youngluck",
    "title": "Start Sh*t Finish Sh*t",
    "description": ""
  }
]