[
  { "timestamp": "2022-02-25 04:36:39",
    "originURL": "https://www.reddit.com/r/Supernote/comments/t0v0qb/my_first_templates_agile_focus/",
    "filename": [ "20220225043639_agile_retro.png", "20220225043639_agile_standup.png", "20220225043639_agile_planning.png", "20220225043639_agile_notes.png" ],
    "tags": [ "projmgmt", "notes" ],
    "owner": "u/Enreekay",
    "title": "Agile Focus",
    "description": ""
  }
]
