[
  { "timestamp": "2022-12-19 09:37:13",
    "originURL": "https://www.reddit.com/r/Supernote/comments/zpn686/guitar_fretboard_template/",
    "filename": [ "20221219093713_guitar.png" ],
    "tags": [ "music" ],
    "owner": "u/Moose_L_Dorf",
    "title": "Guitar Fretboard",
    "description": ""
  }
]