[
  { "timestamp": "2022-08-04 01:18:10",
    "originURL": "https://www.reddit.com/r/Supernote/comments/wfnwe7/newbie_sharing_steno_template/",
    "filename": [ "20220804011810_steno.png" ],
    "tags": [ "steno" ],
    "owner": "u/bmuze",
    "title": "Steno",
    "description": ""
  }
]