[
  { "timestamp": "2022-04-07 10:01:10",
    "originURL": "https://www.reddit.com/r/Supernote/comments/ty9o3h/daily_template/",
    "filename": [ "20220407100110_daily.png" ],
    "tags": [ "planner", "daily" ],
    "owner": "u/Koala_Creek",
    "title": "Daily Planner",
    "description": ""
  }
]