[
  { "timestamp": "2022-07-27 20:21:17",
    "originURL": "https://www.reddit.com/r/Supernote/comments/w9owoh/running_journal_templates/",
    "filename": [ "20220727202117_workout.png" ],
    "tags": [ "planner", "exercise" ],
    "owner": "u/pauleehalloran",
    "title": "Running Workout Planner",
    "description": ""
  },
  { "timestamp": "2022-07-27 20:21:17",
    "originURL": "https://www.reddit.com/r/Supernote/comments/w9owoh/running_journal_templates/",
    "filename": [ "20220727202117_run_log.png" ],
    "tags": [ "tracker", "exercise" ],
    "owner": "u/pauleehalloran",
    "title": "Running Journal",
    "description": ""
  }
]
