[
  { "timestamp": "2022-02-22 03:39:28",
    "originURL": "https://www.reddit.com/r/Supernote/comments/sydcgd/cornell_notes_template/",
    "filename": [ "20220222033928_cnt_summary.png", "20220222033928_cnt_wo_summary.png" ],
    "tags": [ "cnt" ],
    "owner": "u/AuroraGrace123",
    "title": "Cornell Note",
    "description": ""
  }
]