[
  { "timestamp": "2022-12-01 05:29:43",
    "originURL": "https://www.reddit.com/r/Supernote/comments/z9fknh/templates_for_a_do_it_yourself_planner_with_the/",
    "filename": [ "20221201052943_tasks.png", "20221201052943_month.png", "20221201052943_daily.png", "20221201052943_weekly.png", "20221201052943_grid.png", "20221201052943_meeting.png", "20221201052943_expenses.png" ],
    "tags": [ "planner" ],
    "owner": "u/yorcharturoqro",
    "title": "DIY Planner",
    "description": ""
  }
]