[
  { "timestamp": "2022-08-14 03:45:05",
    "originURL": "https://www.reddit.com/r/Supernote/comments/wnwmul/templates_for_bible_study/",
    "filename": [ "20220814034505_prayer_req.png" ],
    "tags": [ "bible" ],
    "owner": "u/Galatians2-20-",
    "title": "Prayer Requests",
    "description": ""
  },
  { "timestamp": "2022-08-14 03:45:05",
    "originURL": "https://www.reddit.com/r/Supernote/comments/wnwmul/templates_for_bible_study/",
    "filename": [ "20220814034505_scripture.png" ],
    "tags": [ "bible" ],
    "owner": "u/Galatians2-20-",
    "title": "Scripture Notes",
    "description": ""
  }
]