[
  { "timestamp": "2022-02-21 14:35:49",
    "originURL": "https://www.reddit.com/r/Supernote/comments/sxuyyj/modified_tea_tasting_template/",
    "filename": [ "20220221143549_tea_taste.png" ],
    "tags": [ "tasting" ],
    "owner": "u/Quetzal_2000",
    "title": "Tea Tasting Scope",
    "description": ""
  }
]