[
  { "timestamp": "2022-08-27 02:23:04",
    "originURL": "https://www.reddit.com/r/Supernote/comments/wyr37r/custom_tab_template_for_guitar/",
    "filename": [ "20220827022304_guitar_a6x.png" ],
    "tags": [ "music", "a6x" ],
    "owner": "u/Calvith",
    "title": "Guitar TAB",
    "description": ""
  }
]
