[
  { "timestamp": "2022-03-25 13:05:40",
    "originURL": "https://www.reddit.com/r/Supernote/comments/tnlidd/three_custom_weekly_templates_i_would_love_to/",
    "filename": [ "20220325130540_weekly_sport.png" ],
    "tags": [ "planner", "weekly" ],
    "owner": "u/Jemelinin",
    "title": "Weekly Sport",
    "description": ""
  },
  { "timestamp": "2022-03-25 13:05:40",
    "originURL": "https://www.reddit.com/r/Supernote/comments/tnlidd/three_custom_weekly_templates_i_would_love_to/",
    "filename": [ "20220325130540_weekly.png" ],
    "tags": [ "planner", "weekly" ],
    "owner": "u/Jemelinin",
    "title": "Weekly Schedule",
    "description": ""
  },
  { "timestamp": "2022-03-25 13:05:40",
    "originURL": "https://www.reddit.com/r/Supernote/comments/tnlidd/three_custom_weekly_templates_i_would_love_to/",
    "filename": [ "20220325130540_weekly_planner.png" ],
    "tags": [ "planner", "weekly" ],
    "owner": "u/Jemelinin",
    "title": "Weekly Planner",
    "description": ""
  }
]
