[
  { "timestamp": "2022-12-10 06:23:27",
    "originURL": "https://www.reddit.com/r/Supernote/comments/zhkz64/templates_for_two_and_six_month_view_for_a/",
    "filename": [ "20221210062327_six_month.png" ],
    "tags": [ "planner" ],
    "owner": "u/yorcharturoqro",
    "title": "Six Month Planner",
    "description": ""
  },
  { "timestamp": "2022-12-10 06:23:27",
    "originURL": "https://www.reddit.com/r/Supernote/comments/zhkz64/templates_for_two_and_six_month_view_for_a/",
    "filename": [ "20221210062327_two_month.png" ],
    "tags": [ "planner" ],
    "owner": "u/yorcharturoqro",
    "title": "Two Month Planner",
    "description": ""
  }
]