[
  { "timestamp": "2022-10-20 13:03:34",
    "originURL": "https://www.reddit.com/r/Supernote/comments/y8xq8c/template_meeting_templates/",
    "filename": [ "20221020130334_meeting_1.png", "20221020130334_meeting_2.png" ],
    "tags": [ "log", "meeting" ],
    "owner": "u/Curious_Calendar_307",
    "title": "Meeting Notes",
    "description": ""
  }
]