[
  { "timestamp": "2022-11-08 23:25:56",
    "originURL": "https://www.reddit.com/r/Supernote/comments/yq211g/short_story_outline/",
    "filename": [ "20221108232556_story_outline.png" ],
    "tags": [ "storyboard" ],
    "owner": "u/kyletimbaker",
    "title": "Short Story Outline",
    "description": ""
  }
]
