[
  { "timestamp": "2022-12-06 16:56:29",
    "originURL": "https://www.reddit.com/r/Supernote/comments/zebr3y/template_task_list_plus/",
    "filename": [ "20221206165629_task_list.png" ],
    "tags": [ "planner" ],
    "owner": "u/rvp_zappa",
    "title": "Priority Task List",
    "description": ""
  }
]