[
  { "timestamp": "2022-07-07 04:46:29",
    "originURL": "https://www.reddit.com/r/Supernote/comments/vta6n9/just_sharing_some_templates_that_im_trying_out/",
    "filename": [ "20220707044629_daily.png" ],
    "tags": [ "planner", "daily" ],
    "owner": "u/snowmoon89",
    "title": "Daily Planner",
    "description": ""
  },
  { "timestamp": "2022-07-07 04:46:29",
    "originURL": "https://www.reddit.com/r/Supernote/comments/vta6n9/just_sharing_some_templates_that_im_trying_out/",
    "filename": [ "20220707044629_todo.png" ],
    "tags": [ "planner" ],
    "owner": "u/snowmoon89",
    "title": "Daily TODO",
    "description": ""
  },
  { "timestamp": "2022-07-07 04:46:29",
    "originURL": "https://www.reddit.com/r/Supernote/comments/vta6n9/just_sharing_some_templates_that_im_trying_out/",
    "filename": [ "20220707044629_monthly.png" ],
    "tags": [ "planner", "monthly" ],
    "owner": "u/snowmoon89",
    "title": "Monthly Planner",
    "description": ""
  }
]