[
  { "timestamp": "2022-11-18 05:06:48",
    "originURL": "https://www.reddit.com/r/Supernote/comments/yybq1o/i_made_some_dnd5e_character_sheet_templates_on_my/",
    "filename": [ "20221118050648_dnd5e.png" ],
    "tags": [ "game" ],
    "owner": "u/oddmothfriend",
    "title": "D&D 5e",
    "description": ""
  }
]