[
  { "timestamp": "2024-02-21 13:39:45",
    "originURL": "https://www.reddit.com/r/Supernote/comments/1awc9go/free_planning_pages/",
    "filename": [ "type_pdf.png" ],
    "tags": [ "pdf" ],
    "owner": "u/myExceptionalLife",
    "title": "Planning Pages",
    "description": ""
  }
]