[
  { "timestamp": "2024-04-15 20:04:55",
    "originURL": "https://www.reddit.com/r/Supernote/comments/1c4w14s/french_s%C3%A9y%C3%A8s_rulling_without_margins/",
    "filename": [ "20240415200455_french_rule.png" ],
    "tags": [ "writing" ],
    "owner": "u/Acrobatic-Monitor516",
    "title": "French Rule ( fs\u00e9y\u00e8s)",
    "description": ""
  }
]