[
  { "timestamp": "2024-02-18 09:04:57",
    "originURL": "https://www.reddit.com/r/Supernote/comments/1atpwp7/working_on_templates_while_i_wait_for_my_supernote/",
    "filename": [ "20240218090457_daily.png", "20240218090457_weekly.png", "20240218090457_lined.png" ],
    "tags": [ "planner" ],
    "owner": "u/duien",
    "title": "Duien's Templates",
    "description": ""
  }
]