[
  { "timestamp": "2024-04-02 11:50:07",
    "originURL": "https://www.reddit.com/r/Supernote/comments/1btwqd4/meeting_notebook/",
    "filename": [ "type_pdf.png" ],
    "tags": [ "pdf" ],
    "owner": "u/LuigI-O",
    "title": "Meeting Notebook",
    "description": ""
  }
]