[
  { "timestamp": "2024-01-02 19:16:14",
    "originURL": "https://www.reddit.com/r/Supernote/comments/18wxkst/guitar_chord_template_for_a_song/",
    "filename": [ "20240102191614_guitar.png" ],
    "tags": [ "music" ],
    "owner": "u/S3koza",
    "title": "Guitar Chords",
    "description": ""
  }
]