[
  { "timestamp": "2024-03-29 17:34:16",
    "originURL": "https://www.reddit.com/r/Supernote/comments/1bqv3m5/hyperlinked_todo_template_with_worklife_sections/",
    "filename": [ "type_pdf.png" ],
    "tags": [ "pdf" ],
    "owner": "u/BlueFairyPainter",
    "title": "Hyperlinked TODO with Work-Life Sections",
    "description": ""
  }
]