[
  { "timestamp": "2024-03-08 21:42:52",
    "originURL": "https://www.reddit.com/r/Supernote/comments/1ba06s6/landscape_planning_templates_free/",
    "filename": [ "type_pdf.png" ],
    "tags": [ "pdf" ],
    "owner": "u/myExceptionalLife",
    "title": "Landscape Planning",
    "description": ""
  }
]