[
  { "timestamp": "2022-09-13 22:26:34",
    "originURL": "https://www.fmworld.net/digital-paper/tool.html",
    "filename": [ "type_pdf.png" ],
    "tags": [ "pdf" ],
    "owner": "fmworld.net",
    "title": "Fujitsu Quaderno Templates",
    "description": ""
  }
]
