[
  { "timestamp": "2023-06-05 11:31:33",
    "originURL": "https://mythinkpond.com/post/2022-01-1/",
    "filename": [ "type_pdf.png" ],
    "tags": [ "pdf" ],
    "owner": "mythinkpond.com",
    "title": "MyThinkPond Time-Block Method",
    "description": ""
  }
]
